<?xml version="1.0" encoding="UTF-8" standalone="no"?>
<svg
   xmlns:dc="http://purl.org/dc/elements/1.1/"
   xmlns:cc="http://creativecommons.org/ns#"
   xmlns:rdf="http://www.w3.org/1999/02/22-rdf-syntax-ns#"
   xmlns:svg="http://www.w3.org/2000/svg"
   xmlns="http://www.w3.org/2000/svg"
   xmlns:sodipodi="http://sodipodi.sourceforge.net/DTD/sodipodi-0.dtd"
   xmlns:inkscape="http://www.inkscape.org/namespaces/inkscape"
   width="1468.921"
   height="1582.1382"
   id="svg2995"
   version="1.1"
   inkscape:version="1.0.2 (e86c870879, 2021-01-15)"
   sodipodi:docname="prix_ordi.svg">
  <defs
     id="defs2997" />
  <sodipodi:namedview
     id="base"
     pagecolor="#ffffff"
     bordercolor="#666666"
     borderopacity="1.0"
     inkscape:pageopacity="0"
     inkscape:pageshadow="2"
     inkscape:zoom="0.5"
     inkscape:cx="734.50438"
     inkscape:cy="830.54239"
     inkscape:document-units="px"
     inkscape:current-layer="g1209"
     showgrid="false"
     showguides="true"
     inkscape:guide-bbox="true"
     units="mm"
     inkscape:window-width="1152"
     inkscape:window-height="751"
     inkscape:window-x="0"
     inkscape:window-y="25"
     inkscape:window-maximized="1"
     inkscape:document-rotation="0"
     inkscape:pagecheckerboard="true"
     fit-margin-top="0"
     fit-margin-left="0"
     fit-margin-right="0"
     fit-margin-bottom="0" />
  <metadata
     id="metadata3000">
    <rdf:RDF>
      <cc:Work
         rdf:about="">
        <dc:format>image/svg+xml</dc:format>
        <dc:type
           rdf:resource="http://purl.org/dc/dcmitype/StillImage" />
        <dc:title />
      </cc:Work>
    </rdf:RDF>
  </metadata>
  <g
     inkscape:label="Calque 1"
     inkscape:groupmode="layer"
     id="layer1"
     transform="translate(825.07515,576.94876)"
     style="display:inline">
    <g
       id="g1209">
      <circle
         style="display:inline;fill:#0c5580;fill-opacity:1;stroke:none;stroke-width:889.625;stroke-linecap:square;stroke-miterlimit:4;stroke-dasharray:none;stroke-opacity:1"
         id="path1134-3-6-3-7-3"
         cx="-526.09668"
         cy="227.60678"
         r="162.25163" />
      <circle
         style="display:inline;fill:#0c5580;fill-opacity:1;stroke:none;stroke-width:889.625;stroke-linecap:square;stroke-miterlimit:4;stroke-dasharray:none;stroke-opacity:1"
         id="path1134-3-6-3-7-5"
         cx="306.95831"
         cy="-228.71469"
         r="162.25163" />
      <circle
         style="display:inline;fill:#0c5580;fill-opacity:1;stroke:none;stroke-width:889.625;stroke-linecap:square;stroke-miterlimit:4;stroke-dasharray:none;stroke-opacity:1"
         id="path1134-3-6-3-7"
         cx="328.39612"
         cy="671.77209"
         r="162.25163" />
      <path
         id="path1132"
         style="fill:none;stroke:#0c5580;stroke-width:174.575;stroke-linecap:square;stroke-miterlimit:4;stroke-dasharray:none;stroke-opacity:1"
         d="M 13.765689,-223.77334 A 450.82003,446.48029 0 0 0 -436.62605,222.70763 450.82003,446.48029 0 0 0 14.19426,669.18856 450.82003,446.48029 0 0 0 465.01463,222.70763 450.82003,446.48029 0 0 0 14.19426,-223.77334 a 450.82003,446.48029 0 0 0 -0.428571,0 z" />
      <circle
         style="fill:#ffd700;fill-opacity:1;stroke:none;stroke-width:632.363;stroke-linecap:square;stroke-miterlimit:4;stroke-dasharray:none;stroke-opacity:1"
         id="path1134"
         cx="306.95831"
         cy="-228.71469"
         r="115.33159" />
      <circle
         style="display:inline;fill:#ffd700;fill-opacity:1;stroke:none;stroke-width:632.363;stroke-linecap:square;stroke-miterlimit:4;stroke-dasharray:none;stroke-opacity:1"
         id="path1134-3"
         cx="328.39612"
         cy="671.77209"
         r="115.33159" />
      <circle
         style="display:inline;fill:#ffd700;fill-opacity:1;stroke:none;stroke-width:632.363;stroke-linecap:square;stroke-miterlimit:4;stroke-dasharray:none;stroke-opacity:1"
         id="path1134-3-6"
         cx="-526.09668"
         cy="227.60678"
         r="115.33159" />
      <text
         xml:space="preserve"
         style="font-style:normal;font-variant:normal;font-weight:normal;font-stretch:normal;font-size:779.024px;line-height:1.25;font-family:'DejaVu Sans';-inkscape-font-specification:'DejaVu Sans';word-spacing:0px;fill:#ffd700;fill-opacity:1;stroke-width:2.33708"
         x="-281.6705"
         y="515.63232"
         id="text845"
         transform="scale(1.03284,0.9682042)"><tspan
           sodipodi:role="line"
           id="tspan843"
           x="-281.6705"
           y="515.63232"
           style="font-style:normal;font-variant:normal;font-weight:bold;font-stretch:normal;font-family:'DejaVu Sans';-inkscape-font-specification:'DejaVu Sans Bold';fill:#ffd700;fill-opacity:1;stroke-width:2.33708">€</tspan></text>
    </g>
  </g>
</svg>
